<?xml version="1.0" encoding="utf-8"?>
<!-- Generator: Adobe Illustrator 22.0.1, SVG Export Plug-In . SVG Version: 6.00 Build 0)  -->
<svg version="1.1" id="Lager_1" xmlns="http://www.w3.org/2000/svg" xmlns:xlink="http://www.w3.org/1999/xlink" x="0px" y="0px"
	 viewBox="0 0 94.4 44.4" style="enable-background:new 0 0 94.4 44.4;" xml:space="preserve">
<style type="text/css">
	.st0{fill:#FFFFFF;}
</style>
<g>
	<path class="st0" d="M-0.1,31.7c0-10.6,0-21.1,0-31.7c1.4,0,2.9,0,4.3,0C3.3,1,3.1,2.1,3.1,3.4c0,7.9,0.1,15.8,0,23.6
		c0,1.8,1.5,3.3,3.2,3.3c27.1-0.1,54.2,0,81.3,0c1.8,0,3-1.1,3-2.9c0-8,0-16.1,0-24.1c0-1.3-0.2-2.4-1.2-3.2c2.2,0,4.3,0,6.5,0
		c0,14.8,0,29.6,0,44.4c-32,0-64,0-96,0c0-0.2,0-0.5,0-0.7c1,0,1.9,0.1,2.9,0c0.2,0,0.4-0.2,0.6-0.3C3.2,43.3,3,43.1,2.9,43
		c-0.3-0.3-0.8-0.5-0.8-0.8c-0.1-1.4,0-2.8,0-4.4c0.9,0,1.8,0,2.6,0c1.9,0,2.9-0.8,3-2.6c0.2-1.8-0.8-3.3-2.6-3.4
		C3.4,31.5,1.7,31.7-0.1,31.7z M32.6,36.7c-0.7-0.2-1.3-0.3-1.9-0.4c-2.4-0.3-4.1,1.1-4.2,3.5c-0.1,3,2.1,4.6,5.2,3.8
		c0.3-0.1,0.7-0.1,1-0.1c0.7,0,1.3,0.1,1.9,0.2c-0.1-1.6-0.2-2.9-0.3-4.2c0-2.2,0-4.3,0-6.5c0-0.4-0.1-0.8-0.1-1.5
		c-0.8,0.4-1.4,0.7-1.9,0.9C32.4,34.1,32.5,35.4,32.6,36.7z M41.2,36.3c0.3,0.6,0.7,1.1,0.8,1.6c0.1,1.1,0,2.2,0,3.2
		c0,1-0.6,1.6-1.5,1.7c-0.9,0.1-1.8-0.6-1.8-1.5c0.1-1.7-0.8-3.5,1.1-5.1c-1.5,0-2.6,0-3.9,0c0.9,1.4,0.9,1.4,0.9,3.2
		c0,0.6,0,1.1,0,1.7c0,1.5,0.8,2.4,2.3,2.5c0.9,0.1,1.8-0.1,2.8-0.2c0.1,0.1,0.3,0.4,0.5,0.8c0.7-0.2,1.2-0.4,1.6-0.5
		c0.3-2.5-0.7-5,0.8-7.4C43.6,36.3,42.4,36.3,41.2,36.3z M85.5,43.6c-0.2-1-0.4-1.8-0.5-2.6c-0.1-0.6,0-1.2,0-1.8
		c0-1.8-0.6-2.6-2.4-2.8c-0.9-0.1-1.8,0.1-2.7,0.2c-0.4-1-0.5-1.1-2.1-0.3c-0.4,2.5,0.6,5-0.7,7.3c1.2,0,2.3,0,3.5,0
		c-0.3-0.5-0.7-0.8-0.8-1.2c-0.1-1.3-0.1-2.6,0-3.8c0-0.9,0.7-1.4,1.5-1.4c0.8,0,1.7,0.3,1.7,1.2c0,1.7,0.9,3.7-1,5.3
		C83.4,43.6,84.6,43.6,85.5,43.6z M21,43.7c2.5,0,4-1.4,4-3.6c0-2.4-1.5-3.9-4.1-3.8c-2.3,0-3.8,1.5-3.8,3.6
		C17.2,42.2,18.7,43.7,21,43.7z M93,36.6c-1.3-0.6-2.2-0.8-3.6-0.2c-0.6,0.3-1.4,0.9-1.6,1.5c-0.2,0.9,0.7,1.5,1.5,1.9
		c0.4,0.2,0.8,0.2,1.3,0.3c0.5,0.2,1.1,0.2,1.6,0.5c0.9,0.5,0.8,1.4-0.1,1.8c-0.5,0.2-1.1,0.3-1.6,0.2c-0.7-0.2-1.2-0.8-1.9-1.1
		c-0.3-0.1-0.7,0-1.1,0c0.1,0.7,0.1,1.4,0.2,2.1c0.4-0.1,0.7-0.3,0.8-0.3c1.5,0.1,2.7,0.2,4,0.2c1-0.1,1.8-0.6,1.9-1.7
		c0.1-1.1-0.4-1.9-1.3-2.3c-0.6-0.3-1.3-0.4-1.9-0.6c-0.7-0.2-1.7-0.4-1.4-1.2c0.2-0.5,1.3-0.8,2.1-0.9c0.4-0.1,0.9,0.5,1.4,0.8
		c0.3,0.2,0.6,0.5,0.9,0.8c0.1-0.1,0.3-0.1,0.4-0.2c-0.1-0.7-0.2-1.4-0.2-2.1C93.8,36.3,93.5,36.5,93,36.6z M75.3,40.1
		c0-2.4-1.4-3.8-3.9-3.8c-2.3,0-3.8,1.4-3.8,3.5c0,2.4,1.5,3.9,3.8,3.9C73.9,43.7,75.3,42.4,75.3,40.1z M50.8,43.9
		c0.8-0.2,1.6-0.4,2.4-0.7c0.3-0.1,0.6-0.6,0.7-1c0-0.1-0.4-0.6-0.6-0.6c-0.3,0-0.6,0.3-1,0.5c-0.6,0.3-1.3,0.9-1.8,0.7
		c-0.6-0.2-1.4-0.9-1.6-1.5c-0.2-1-0.2-2.1,0.1-3c0.2-0.6,1-1.3,1.7-1.4c0.5-0.1,1.1,0.7,1.6,1c0.3,0.2,0.6,0.5,0.9,0.5
		c0.2,0,0.7-0.3,0.6-0.4c0-0.4-0.1-0.8-0.4-1c-1.7-1.9-5.8-1-6.7,1.4C45.7,41.5,47.4,43.7,50.8,43.9z M12.6,43.7
		c-0.2-1.2-0.3-2.2-0.4-3.2c0-0.3,0-0.6,0-1c0-1.8,0.8-2.4,2.5-1.9c0.2,0.1,0.4,0.3,0.5,0.2c0.4-0.2,0.7-0.4,1-0.6
		c-0.2-0.2-0.4-0.7-0.6-0.7c-1.1,0-2.2,0.1-3.4,0.1c-0.3-1.7-1.4-0.2-2.1-0.3c-0.2,2.5,0.6,4.9-0.6,7.4c0.8,0,1.5,0,2.2,0
		C12.1,43.7,12.4,43.7,12.6,43.7z M56.8,37.5c0,0.5,0,0.9,0,1.3c0,1-0.1,2.1,0.1,3.1c0.2,1.6,1.9,2.4,3.2,1.5
		c0.3-0.2,0.4-0.7,0.5-1.1c-0.1-0.1-0.2-0.1-0.3-0.2c-0.7,0.3-1.6,1-1.7-0.3c-0.2-1.4,0-2.9,0-4.4c0.5,0,0.9,0.1,1.2,0
		c0.4-0.1,0.7-0.3,1-0.5c-0.3-0.2-0.6-0.5-0.9-0.5c-1,0.1-1.5-0.2-1.5-1.3c0-0.4-0.5-0.7-0.7-1.1c-0.3,0.4-0.6,0.7-0.8,1.1
		c-0.3,0.4-0.6,0.9-1,1.3c-0.2,0.2-0.5,0.4-0.7,0.6c0.3,0.1,0.6,0.3,0.9,0.4C56.2,37.5,56.4,37.5,56.8,37.5z M62.9,37.2
		c0.1,1.4,0.2,2.4,0.2,3.5c0,1,0.4,2.2-1.1,2.6c0.8,0.7,3.6,0.7,4.5-0.1c-1.8-0.2-1.3-1.5-1.3-2.6c0-0.9,0-1.8,0-2.8
		c0-1.2-0.4-1.4-1.4-1.1C63.3,36.9,63,37.2,62.9,37.2z M65.5,33.3c-0.8-0.5-1.2-0.9-1.6-0.9c-0.3,0-0.6,0.6-0.9,1
		c0.4,0.3,0.7,0.8,1.1,0.9C64.4,34.4,64.8,33.8,65.5,33.3z"/>
	<path d="M89.4,0c1,0.8,1.2,1.9,1.2,3.2c-0.1,8,0,16.1,0,24.1c0,1.8-1.1,2.9-3,2.9c-27.1,0-54.2,0-81.3,0c-1.7,0-3.3-1.5-3.2-3.3
		c0.1-7.9,0.1-15.8,0-23.6C3.1,2.1,3.3,1,4.2,0C32.6,0,61,0,89.4,0z M46.8,1.5c-13.4,0-26.9,0-40.3,0C5.4,1.4,5,1.7,5,2.9
		C5,10.9,5,19,5,27c0,1.1,0.3,1.4,1.4,1.4c27,0,53.9,0,80.9,0c1.2,0,1.5-0.4,1.5-1.5c0-8,0-16,0-24c0-1.2-0.3-1.5-1.5-1.5
		C73.8,1.5,60.3,1.5,46.8,1.5z"/>
	<path d="M-0.1,31.7c1.7,0,3.5-0.2,5.2,0c1.8,0.2,2.7,1.6,2.6,3.4c-0.2,1.8-1.1,2.6-3,2.6c-0.8,0-1.7,0-2.6,0c0,1.6,0,3,0,4.4
		c0,0.3,0.5,0.5,0.8,0.8c0.1,0.1,0.3,0.3,0.4,0.4c-0.2,0.1-0.4,0.3-0.6,0.3c-1,0-1.9,0-2.9,0c0-0.3,0-0.6,0-1c0.1-0.3,0.3-0.6,0.3-1
		c0-2.9,0-5.7,0-8.6c0-0.3-0.2-0.5-0.3-0.8C-0.1,32.2-0.1,31.9-0.1,31.7z M2,37.3c0.5,0,0.8,0.1,1.1,0.1c1.6-0.1,2.5-1.1,2.4-2.8
		C5.5,33,4.3,32,2.8,32.2c-0.3,0-0.7,0.5-0.7,0.8C2,34.3,2,35.7,2,37.3z"/>
	<path class="st0" d="M-0.1,32.4c0.1,0.3,0.3,0.5,0.3,0.8c0,2.9,0,5.7,0,8.6c0,0.3-0.2,0.6-0.3,1C-0.1,39.3-0.1,35.9-0.1,32.4z"/>
	<path d="M32.6,36.7c-0.1-1.4-0.2-2.7-0.3-4.2c0.4-0.2,1-0.5,1.9-0.9c0.1,0.6,0.1,1.1,0.1,1.5c0,2.2,0,4.3,0,6.5
		c0,1.3,0.2,2.6,0.3,4.2c-0.6-0.1-1.2-0.2-1.9-0.2c-0.3,0-0.7,0-1,0.1c-3.1,0.7-5.2-0.9-5.2-3.8c0.1-2.3,1.8-3.8,4.2-3.5
		C31.3,36.4,31.9,36.6,32.6,36.7z M32.5,40.2c-0.1-0.5-0.1-0.9-0.2-1.3c-0.2-1.1-0.8-1.7-1.9-1.8c-1.1,0-1.9,0.6-2,1.6
		c-0.1,0.9-0.1,1.9,0.1,2.8c0.2,0.9,0.9,1.4,1.8,1.4c1,0,1.6-0.6,1.9-1.5C32.4,41.1,32.5,40.6,32.5,40.2z"/>
	<path d="M41.2,36.3c1.2,0,2.4,0,3.6,0c-1.5,2.4-0.5,4.8-0.8,7.4c-0.4,0.1-0.9,0.3-1.6,0.5c-0.2-0.3-0.4-0.7-0.5-0.8
		c-1,0.1-1.9,0.3-2.8,0.2c-1.5-0.1-2.3-1-2.3-2.5c0-0.6,0-1.1,0-1.7c0-1.8,0-1.8-0.9-3.2c1.3,0,2.4,0,3.9,0c-2,1.5-1,3.4-1.1,5.1
		c0,0.9,0.9,1.7,1.8,1.5c1-0.1,1.5-0.7,1.5-1.7c0-1.1,0.1-2.2,0-3.2C41.9,37.4,41.5,37,41.2,36.3z"/>
	<path d="M85.5,43.6c-0.9,0-2,0-3.4,0c1.9-1.6,1-3.6,1-5.3c0-0.9-0.9-1.2-1.7-1.2c-0.9,0-1.5,0.5-1.5,1.4c-0.1,1.3-0.1,2.6,0,3.8
		c0,0.4,0.4,0.7,0.8,1.2c-1.2,0-2.4,0-3.5,0c1.4-2.4,0.4-4.9,0.7-7.3c1.6-0.7,1.7-0.7,2.1,0.3c0.9-0.1,1.9-0.3,2.7-0.2
		c1.8,0.2,2.4,1,2.4,2.8c0,0.6-0.1,1.2,0,1.8C85.1,41.9,85.3,42.7,85.5,43.6z"/>
	<path d="M21,43.7c-2.3,0-3.8-1.5-3.8-3.8c0-2.2,1.5-3.6,3.8-3.6c2.5,0,4.1,1.4,4.1,3.8C25,42.3,23.5,43.7,21,43.7z M23.3,40.1
		c0-0.3,0-0.7-0.1-1.1c-0.3-1.2-1.1-1.9-2.2-1.9c-1.2,0-1.8,0.8-2,1.8c-0.1,0.7-0.1,1.5,0,2.2c0.2,1.2,1.2,1.9,2.2,1.9
		c1,0,1.8-0.8,2-2.1C23.3,40.7,23.3,40.4,23.3,40.1z"/>
	<path d="M93,36.6c0.5-0.2,0.9-0.3,1.2-0.4c0.1,0.7,0.2,1.4,0.2,2.1c-0.1,0.1-0.3,0.1-0.4,0.2c-0.3-0.3-0.6-0.6-0.9-0.8
		c-0.4-0.3-1-0.9-1.4-0.8c-0.7,0.1-1.9,0.4-2.1,0.9c-0.3,0.8,0.7,1,1.4,1.2c0.6,0.2,1.3,0.3,1.9,0.6c1,0.4,1.4,1.3,1.3,2.3
		c-0.1,1.1-0.9,1.6-1.9,1.7c-1.2,0.1-2.5-0.1-4-0.2c-0.1,0-0.4,0.2-0.8,0.3c-0.1-0.7-0.1-1.4-0.2-2.1c0.4,0,0.8-0.2,1.1,0
		c0.7,0.3,1.2,0.9,1.9,1.1c0.5,0.2,1.1,0,1.6-0.2c0.9-0.4,1-1.3,0.1-1.8c-0.5-0.3-1-0.4-1.6-0.5c-0.4-0.1-0.9-0.2-1.3-0.3
		c-0.9-0.3-1.7-0.9-1.5-1.9c0.1-0.6,0.9-1.2,1.6-1.5C90.7,35.8,91.6,36,93,36.6z"/>
	<path d="M75.3,40.1c0,2.3-1.5,3.7-4,3.7c-2.4,0-3.9-1.5-3.8-3.9c0-2.1,1.5-3.5,3.8-3.5C73.9,36.3,75.3,37.7,75.3,40.1z M73.6,39.9
		c0-0.2-0.1-0.7-0.2-1.1c-0.3-1.2-1.2-1.9-2.2-1.8c-1.2,0.1-1.7,0.9-1.9,2c-0.1,0.5-0.1,1.1,0,1.7c0.2,1.4,1.2,2.4,2.3,2.3
		c1,0,1.8-0.9,2-2.3C73.6,40.5,73.6,40.3,73.6,39.9z"/>
	<path d="M50.8,43.9c-3.4-0.1-5.1-2.4-4-5.4c0.8-2.4,4.9-3.3,6.7-1.4c0.2,0.3,0.3,0.7,0.4,1c0,0.1-0.5,0.4-0.6,0.4
		c-0.3-0.1-0.6-0.3-0.9-0.5c-0.6-0.4-1.2-1.1-1.6-1c-0.7,0.1-1.5,0.8-1.7,1.4c-0.3,0.9-0.4,2.1-0.1,3c0.2,0.6,1,1.3,1.6,1.5
		c0.5,0.1,1.2-0.4,1.8-0.7c0.3-0.2,0.6-0.5,1-0.5c0.2,0,0.7,0.4,0.6,0.6c-0.1,0.4-0.3,0.9-0.7,1C52.4,43.5,51.6,43.7,50.8,43.9z"/>
	<path d="M12.6,43.7c-0.1,0-0.5,0-0.9,0c-0.7,0-1.4,0-2.2,0c1.2-2.5,0.4-4.9,0.6-7.4c0.7,0.1,1.8-1.4,2.1,0.3c1.2,0,2.3-0.1,3.4-0.1
		c0.2,0,0.4,0.4,0.6,0.7c-0.3,0.2-0.7,0.5-1,0.6c-0.1,0.1-0.4-0.2-0.5-0.2c-1.7-0.5-2.5,0.1-2.5,1.9c0,0.3,0,0.6,0,1
		C12.3,41.5,12.4,42.5,12.6,43.7z"/>
	<path d="M56.8,37.5c-0.3,0-0.5,0-0.7-0.1c-0.3-0.1-0.6-0.3-0.9-0.4c0.2-0.2,0.5-0.4,0.7-0.6c0.3-0.4,0.7-0.9,1-1.3
		c0.3-0.4,0.6-0.7,0.8-1.1c0.2,0.4,0.7,0.7,0.7,1.1c0,1.1,0.5,1.4,1.5,1.3c0.3,0,0.6,0.3,0.9,0.5c-0.3,0.2-0.7,0.4-1,0.5
		c-0.3,0.1-0.7,0-1.2,0c0,1.5-0.1,3,0,4.4c0.2,1.2,1,0.6,1.7,0.3c0.1,0.1,0.2,0.1,0.3,0.2c-0.2,0.4-0.3,0.9-0.5,1.1
		c-1.3,0.9-3.1,0.1-3.2-1.5c-0.1-1,0-2.1-0.1-3.1C56.8,38.4,56.8,38,56.8,37.5z"/>
	<path d="M62.9,37.2c0.1,0,0.4-0.3,0.8-0.4c1.1-0.4,1.4-0.1,1.4,1.1c0,0.9,0,1.8,0,2.8c0,1-0.5,2.4,1.3,2.6C65.6,44,62.9,44,62,43.3
		c1.5-0.4,1.1-1.6,1.1-2.6C63.1,39.6,63,38.6,62.9,37.2z"/>
	<path d="M65.5,33.3c-0.7,0.5-1.1,1-1.4,1c-0.4-0.1-0.7-0.6-1.1-0.9c0.3-0.3,0.6-0.9,0.9-1C64.4,32.4,64.8,32.9,65.5,33.3z"/>
	<path class="st0" d="M46.8,1.5c13.5,0,27,0,40.4,0c1.2,0,1.5,0.3,1.5,1.5c0,8,0,16,0,24c0,1.1-0.2,1.5-1.5,1.5c-27,0-53.9,0-80.9,0
		C5.3,28.4,5,28.1,5,27c0-8,0-16.1,0-24.1c0-1.2,0.4-1.5,1.5-1.5C20,1.5,33.4,1.5,46.8,1.5z M35.8,20.7c2.4,0,4.6,0.2,6.9-0.1
		c1-0.1,2.2-0.9,2.9-1.7c1.7-2,1.8-6.8,0.1-8.8C45,9.3,44,8.5,43.1,8.4c-2.4-0.3-4.8-0.3-7.3-0.4C35.8,12.4,35.8,16.5,35.8,20.7z
		 M71.2,8.2c-0.2-0.1-0.3-0.1-0.5-0.1c-2,0-3.9,0-5.9,0c-1.6,0-3.1,0.4-3.8,2c-0.7,1.6-0.5,3,0.8,4.3c-2.4,2.5-0.8,6,1.4,6.3
		c2.6,0.3,5.2,0.1,7.8,0.1c0.2-2.2,0.2-2.2-1.9-2.2c-1.6,0-3.1,0.1-4.7,0c-0.5,0-1.1-0.4-1.3-0.8c-0.2-0.4,0-1.1,0.3-1.5
		c0.3-0.3,0.9-0.5,1.4-0.5c2.1-0.1,4.1,0,6.2,0c0-0.4,0-0.7,0.1-0.9c0.1-1-0.2-1.5-1.3-1.4c-1.4,0.1-2.9,0-4.3,0
		c-1.8,0-2.5-0.3-2.5-1.3c0-1,0.7-1.5,2.5-1.5c1.9,0,3.7,0,5.6,0C71.2,9.5,71.2,8.9,71.2,8.2z M10.5,20.8c2.6,0,5.1,0.1,7.5,0
		c2.2-0.2,3.3-1.7,3.2-4c-0.1-2.1-1.3-3.4-3.6-3.5c-1.2-0.1-2.3,0-3.5,0c-1.2,0-1.8-0.5-1.8-1.5c0-0.9,0.6-1.4,1.8-1.4
		c2,0,4.1,0,6.1,0c0-0.8,0-1.5,0-2.2c-0.3,0-0.5-0.1-0.7-0.1c-2,0-4.1-0.1-6.1,0c-2.4,0.1-3.7,1.6-3.7,3.9c0.1,2.2,1.5,3.5,3.8,3.6
		c1.2,0,2.3,0,3.5,0c1,0,1.6,0.5,1.7,1.5c0.1,0.9-0.5,1.4-1.6,1.5c-1.9,0-3.8,0-5.6,0c-0.8,0-1.2,0.3-1.1,1.1
		C10.5,19.9,10.5,20.3,10.5,20.8z M48.4,20.7c2.3,0,4.5,0.2,6.7,0c2.7-0.3,4.2-2.3,4.3-5.4c0.2-3.8-0.9-6.3-3.6-6.8
		c-2.4-0.5-4.9-0.3-7.4-0.5C48.4,12.4,48.4,16.5,48.4,20.7z M21.6,20.8c1.3,0.1,2.6,0.5,3-1.3c0-0.2,0.5-0.4,0.8-0.4
		c1.8,0,3.5,0,5.3,0c0.3,0,0.8,0.3,0.9,0.5c0.8,1.4,1.3,1.6,2.9,1c-1.3-3.7-2.6-7.4-4-11c-0.4-1.1-1.3-1.5-2.4-1.5
		c-1.1,0-2,0.4-2.5,1.5c-0.4,1-0.7,1.9-1.1,2.9C23.5,15.2,22.6,17.9,21.6,20.8z M84.1,20.7c-1.2-1.9-2.3-3.7-3.5-5.5
		c-0.5-0.7-0.4-1.2,0.1-1.9c1.2-1.7,2.3-3.4,3.4-5.1c-2.2-0.6-2.7-0.4-3.8,1.3c-0.7,1.1-1.3,2.1-2,3.2c-0.2-0.1-0.3-0.1-0.3-0.1
		c-0.6-1-1.3-2-1.9-3c-1-1.7-1.6-1.9-3.7-1.3c1,1.4,1.9,2.9,2.8,4.3c1.1,1.7,1.1,1.6,0,3.4c-1,1.5-1.9,3.1-2.9,4.6
		c2.1,0.6,2.7,0.4,3.7-1.1c0.7-1.1,1.4-2.3,2.1-3.5c0.1,0.2,0.2,0.3,0.3,0.4c0.5,0.9,1.1,1.8,1.6,2.7C81.4,21.1,81.4,21.1,84.1,20.7
		z"/>
	<path class="st0" d="M2,37.3c0-1.5,0-2.9,0-4.3c0-0.3,0.5-0.7,0.7-0.8C4.3,32,5.5,33,5.5,34.5c0.1,1.7-0.8,2.7-2.4,2.8
		C2.8,37.3,2.5,37.3,2,37.3z"/>
	<path class="st0" d="M32.5,40.2c-0.1,0.4-0.1,0.9-0.3,1.4c-0.3,0.9-1,1.5-1.9,1.5c-0.9,0-1.7-0.5-1.8-1.4c-0.2-0.9-0.2-1.9-0.1-2.8
		c0.2-1.1,0.9-1.7,2-1.6c1.1,0,1.7,0.7,1.9,1.8C32.4,39.3,32.5,39.7,32.5,40.2z"/>
	<path class="st0" d="M23.3,40.1c0,0.3,0,0.6-0.1,0.9c-0.2,1.2-1,2-2,2.1c-1,0-1.9-0.7-2.2-1.9c-0.1-0.7-0.1-1.5,0-2.2
		c0.2-1.1,0.8-1.8,2-1.8c1.1,0,1.9,0.7,2.2,1.9C23.2,39.3,23.3,39.7,23.3,40.1z"/>
	<path class="st0" d="M73.6,39.9c0,0.4,0,0.6-0.1,0.8c-0.2,1.4-1,2.3-2,2.3c-1.1,0-2.1-0.9-2.3-2.3c-0.1-0.5-0.1-1.1,0-1.7
		c0.2-1.1,0.7-1.9,1.9-2c1-0.1,1.9,0.6,2.2,1.8C73.6,39.2,73.6,39.7,73.6,39.9z"/>
	<path d="M35.8,20.7c0-4.2,0-8.3,0-12.7c2.5,0.1,4.9,0.1,7.3,0.4c0.9,0.1,2,0.9,2.6,1.7c1.7,2.1,1.6,6.8-0.1,8.8
		c-0.7,0.8-1.9,1.6-2.9,1.7C40.4,20.8,38.1,20.7,35.8,20.7z M38.1,18.5c0.4,0,0.7,0,0.9,0c0.9,0,1.8,0,2.7,0
		c1.7-0.1,2.5-1.1,2.7-3.2c0.2-2.7-0.5-4.5-2.1-4.7c-1.4-0.2-2.8,0-4.2,0C38.1,13.2,38.1,15.7,38.1,18.5z"/>
	<path d="M71.2,8.2c0,0.7,0,1.3,0,2.2c-1.9,0-3.7,0-5.6,0c-1.8,0-2.5,0.5-2.5,1.5c0,1,0.6,1.3,2.5,1.3c1.4,0,2.9,0.1,4.3,0
		c1.2-0.1,1.5,0.4,1.3,1.4c0,0.3-0.1,0.5-0.1,0.9c-2.1,0-4.2,0-6.2,0c-0.5,0-1.1,0.2-1.4,0.5c-0.3,0.4-0.4,1.1-0.3,1.5
		c0.2,0.4,0.8,0.8,1.3,0.8c1.6,0.1,3.1,0,4.7,0c2.2,0,2.2,0,1.9,2.2c-2.6,0-5.2,0.2-7.8-0.1c-2.2-0.2-3.8-3.7-1.4-6.3
		c-1.3-1.2-1.5-2.7-0.8-4.3c0.7-1.6,2.2-2,3.8-2c2,0,3.9,0,5.9,0C70.9,8.1,71,8.1,71.2,8.2z"/>
	<path d="M10.5,20.8c0-0.4,0-0.8,0-1.2c-0.1-0.8,0.2-1.1,1.1-1.1c1.9,0.1,3.8,0,5.6,0c1.1,0,1.7-0.5,1.6-1.5c-0.1-1-0.6-1.5-1.7-1.5
		c-1.2,0-2.3,0-3.5,0c-2.3-0.1-3.7-1.5-3.8-3.6c-0.1-2.2,1.3-3.7,3.7-3.9c2-0.1,4.1,0,6.1,0c0.2,0,0.4,0,0.7,0.1c0,0.7,0,1.4,0,2.2
		c-2.1,0-4.1,0-6.1,0c-1.2,0-1.8,0.5-1.8,1.4c0,0.9,0.6,1.4,1.8,1.5c1.2,0,2.3,0,3.5,0c2.3,0.1,3.5,1.3,3.6,3.5c0.1,2.2-1,3.8-3.2,4
		C15.6,20.9,13.1,20.8,10.5,20.8z"/>
	<path d="M48.4,20.7c0-4.2,0-8.3,0-12.8c2.5,0.1,5,0,7.4,0.5c2.7,0.5,3.9,3,3.6,6.8c-0.2,3.2-1.6,5.1-4.3,5.4
		C52.9,20.9,50.7,20.7,48.4,20.7z M50.7,18.5c1.3,0,2.5,0,3.6,0c1.2,0,2.2-0.6,2.4-1.8c0.2-1.5,0.2-3,0-4.5c-0.1-1-1-1.7-2-1.8
		c-1.3-0.1-2.6,0-4,0C50.7,13.1,50.7,15.7,50.7,18.5z"/>
	<path d="M21.6,20.8c1-2.8,2-5.6,3-8.3c0.3-1,0.7-2,1.1-2.9C26.1,8.5,27,8,28.1,8c1.1,0,2,0.4,2.4,1.5c1.3,3.7,2.7,7.4,4,11
		c-1.6,0.6-2.1,0.4-2.9-1C31.4,19.3,31,19,30.7,19c-1.8,0-3.5,0-5.3,0c-0.3,0-0.8,0.2-0.8,0.4C24.2,21.3,22.9,20.9,21.6,20.8z
		 M28.3,10.3c-0.2,0-0.4,0-0.5,0c-0.7,2.1-1.5,4.1-2.2,6.2c1.8,0,3.3,0,5,0C29.7,14.4,29,12.4,28.3,10.3z"/>
	<path d="M84.1,20.7c-2.7,0.4-2.7,0.4-3.9-1.7c-0.5-0.9-1.1-1.8-1.6-2.7c-0.1-0.1-0.1-0.2-0.3-0.4c-0.7,1.2-1.4,2.3-2.1,3.5
		c-1,1.6-1.6,1.8-3.7,1.1c1-1.6,1.9-3.1,2.9-4.6c1.1-1.7,1.1-1.7,0-3.4c-1-1.4-1.9-2.9-2.8-4.3c2-0.6,2.6-0.4,3.7,1.3
		c0.6,1,1.3,2,1.9,3c0,0.1,0.1,0.1,0.3,0.1c0.7-1.1,1.3-2.1,2-3.2c1.1-1.7,1.5-1.9,3.8-1.3c-1.1,1.7-2.2,3.4-3.4,5.1
		c-0.5,0.7-0.5,1.2-0.1,1.9C81.8,17,82.9,18.9,84.1,20.7z"/>
	<path class="st0" d="M38.1,18.5c0-2.7,0-5.3,0-8c1.4,0,2.9-0.2,4.2,0c1.7,0.2,2.4,2,2.1,4.7c-0.2,2.1-1,3.1-2.7,3.2
		c-0.9,0.1-1.8,0-2.7,0C38.8,18.5,38.5,18.5,38.1,18.5z"/>
	<path class="st0" d="M50.7,18.5c0-2.7,0-5.4,0-8.1c1.4,0,2.7-0.1,4,0c1,0.1,1.9,0.7,2,1.8c0.2,1.5,0.2,3,0,4.5
		c-0.2,1.2-1.2,1.8-2.4,1.8C53.2,18.5,52,18.5,50.7,18.5z"/>
	<path class="st0" d="M28.3,10.3c0.7,2,1.5,4.1,2.3,6.2c-1.7,0-3.3,0-5,0c0.8-2.1,1.5-4.2,2.2-6.2C27.9,10.3,28.1,10.3,28.3,10.3z"
		/>
</g>
</svg>
