<?xml version="1.0" encoding="utf-8"?>
<!-- Generator: Adobe Illustrator 22.0.1, SVG Export Plug-In . SVG Version: 6.00 Build 0)  -->
<svg version="1.1" id="Layer_1" xmlns="http://www.w3.org/2000/svg" xmlns:xlink="http://www.w3.org/1999/xlink" x="0px" y="0px"
	 viewBox="0 0 114.8 143.7" style="enable-background:new 0 0 114.8 143.7;" xml:space="preserve">
<g>
	<path d="M62,46.6c6.7-1.5,11.9-0.4,15.8,4.8c0.4,0.6,2.1,0.7,3,0.5c6.6-2,11.3,0.5,15.1,5.7c2.4-0.3,4.9-0.9,7.3-0.9
		c5.8,0.1,11.2,4.3,11.3,10c0.2,14.6,0.8,29.4-0.9,43.8c-2.1,17.6-17.7,31.5-34.9,33.5c-19.3,2.3-36-6.6-43.9-23.4
		C27.2,104.5,19.6,88.5,12,72.4c-3.5-7.4-1.6-14.4,4.6-17.6c6.7-3.4,13.7-0.5,17.5,7.3c0.8,1.6,1.7,3.2,3.1,6.1
		c0.2-2.6,0.4-3.9,0.4-5.2c0-16.3,0-32.6,0-48.9c0-6.2,3.6-10.8,9.2-12.1c5.2-1.3,10.9,0.7,13.3,5.4c1.2,2.4,1.7,5.4,1.8,8.1
		C62.1,25.6,62,35.7,62,46.6z M44.6,48.9c0,11.3,0.1,22.7-0.1,34c0,1.9-1.9,3.7-2.9,5.5c-1.5-1.2-3.7-2.2-4.5-3.8
		c-3.2-6.2-6-12.6-9.1-18.9c-0.7-1.5-1.6-3.4-2.9-3.9c-1.8-0.6-5.1-0.8-5.8,0.1c-1.2,1.9-2,5.1-1.2,7c7.8,17.3,16,34.4,24.2,51.5
		c1,2.1,2.5,4,4.1,5.6c9.9,10.2,21.8,13.9,35.5,10.1c13.9-3.9,22.6-13.3,25.6-27.3c1.3-6.1,0.9-12.6,1-18.9
		c0.1-6.8,0.4-13.7-0.2-20.5c-0.2-2.1-2.4-4.9-4.3-5.6c-1.4-0.5-4.6,1.4-5.7,3.1c-1.4,2-0.9,5.7-4.8,4.9c-3.7-0.7-2.7-4-2.9-6.5
		c-0.1-1.2,0.3-2.7-0.3-3.4c-1.3-1.5-3-3.4-4.7-3.7c-1.5-0.2-3.4,1.4-4.8,2.6c-0.7,0.6-0.4,2.4-1.1,3.2c-1,1.1-2.4,2.4-3.7,2.5
		c-1,0-2.4-1.6-3-2.7c-0.5-1.1-0.3-2.6-0.2-3.9c0.1-3.5-0.6-6.5-4.6-7c-3.7-0.5-5.2,1.9-6.1,5.2c-0.4,1.4-2.3,2.3-3.5,3.4
		c-1.1-1.4-2.6-2.6-3.3-4.2c-0.5-1.1-0.1-2.6-0.1-4c0-12.7,0-25.3,0-38c0-3.8-1.1-7-5.3-7c-4.2,0-5.3,3.1-5.3,6.9
		C44.7,26.6,44.6,37.7,44.6,48.9z"/>
	<path d="M12.4,15.1c5.7,0,10.1,0,14.6,0c2.7,0,5.8-0.1,5.8,3.7c0,3.6-3,3.3-5.5,3.4c-4.6,0-9.2,0-14.8,0c1.5,1.8,2.7,2.8,3.1,4
		c0.5,1.5,0.2,3.2,0.3,4.9c-1.6,0-3.8,0.7-4.8-0.1c-3.4-2.9-6.5-6.2-9.6-9.4c-2-2.1-1.6-4.1,0.4-6.1C4.4,13,7,10.4,9.5,7.8
		c1.8-1.9,4.1-3.9,6.2-1.1c0.8,1.1-0.6,3.9-1.1,5.8C14.4,13.2,13.6,13.7,12.4,15.1z"/>
	<path d="M87.4,22.2c-5.6,0-10.4,0.3-15.1-0.2c-1.8-0.2-4.8-1.9-4.9-3.2c-0.4-3.2,2.4-3.7,5.1-3.7c4.8,0,9.5,0,15.2,0
		c-1.7-2-3.2-3.1-3.6-4.5c-0.4-1.3-0.3-3.3,0.5-4.3c0.6-0.7,3.2-0.9,3.9-0.2c3.7,3.3,7.4,6.8,10.5,10.6c0.7,0.9,0,3.9-1,5.1
		c-2.4,3-5.1,5.8-8.1,8.1c-1.4,1.1-4.6,1.8-5.8,1c-2.6-1.8-0.7-4,1-5.8C85.7,24.5,86.2,23.7,87.4,22.2z"/>
</g>
</svg>
